Get drugs known to target a given EnsemblId product — ot_knowndrugs • RGeneTools
…
ensgIds
Character vector of EnsemblIDs

size
Maximum number of rows to return per EnsemblID queried

    Value

    A tibble

    Examples

ot_knowndrugs("ENSG00000157764")
#> # A tibble: 839 × 12
#>    ensgId        phase status urls.name urls.url disease.id disease.name drug.id
#>    <chr>         <dbl> <chr>  <chr>     <chr>    <chr>      <chr>        <chr>  
#>  1 ENSG00000157…     4 Unkno… Clinical… https:/… MONDO_000… thrombotic … CHEMBL…
#>  2 ENSG00000157…     4 Unkno… DailyMed… https:/… EFO_00007… melanoma     CHEMBL…
#>  3 ENSG00000157…     4 Unkno… DailyMed  https:/… EFO_00026… metastatic … CHEMBL…
#>  4 ENSG00000157…     4 Compl… Clinical… https:/… EFO_10014… metastatic … CHEMBL…
#>  5 ENSG00000157…     4 Recru… Clinical… https:/… EFO_00001… hepatocellu… CHEMBL…
#>  6 ENSG00000157…     4 Termi… Clinical… https:/… EFO_00026… metastatic … CHEMBL…
#>  7 ENSG00000157…     4 Unkno… EMA       https:/… EFO_00041… colorectal … CHEMBL…
#>  8 ENSG00000157…     4 Compl… Clinical… https:/… EFO_00001… hepatocellu… CHEMBL…
#>  9 ENSG00000157…     4 Unkno… Clinical… https:/… EFO_00001… hepatocellu… CHEMBL…
#> 10 ENSG00000157…     4 Unkno… DailyMed  https:/… MONDO_000… colorectal … CHEMBL…
#> # ℹ 829 more rows
#> # ℹ 4 more variables: drug.name <chr>, drug.mechanismsOfAction <chr>,
#> #   drugType <chr>, mechanismOfAction <chr>
…
